<svg width="24" height="24" viewBox="0 0 24 24" fill="none" xmlns="http://www.w3.org/2000/svg">
<path fill-rule="evenodd" clip-rule="evenodd" d="M22 10.7812C22 5.93146 17.5228 2 12 2C6.47715 2 2 5.93146 2 10.7812C2 13.1257 3.04635 15.2556 4.7557 16.8314C4.601 17.7943 4.37476 18.7339 4.08246 19.6448C3.98969 19.934 3.86487 20.2709 3.708 20.6557C3.60373 20.9115 3.61404 21.1985 3.73641 21.4464C3.97694 21.9338 4.57499 22.1377 5.07218 21.9019L5.33612 21.7745C5.58986 21.6497 5.81293 21.5327 6.00531 21.4236C7.1329 20.7839 8.19084 20.0395 9.16399 19.2042C10.0631 19.4373 11.0149 19.5623 12 19.5623C17.5228 19.5623 22 15.6309 22 10.7812ZM13.2 13.8C13.2 13.9858 13.2 14.0787 13.1877 14.1564C13.1199 14.5843 12.7843 14.9199 12.3564 14.9877C12.2787 15 12.1858 15 12 15C11.8142 15 11.7213 15 11.6436 14.9877C11.2157 14.9199 10.8801 14.5843 10.8123 14.1564C10.8 14.0787 10.8 13.9858 10.8 13.8V10.2C10.8 10.0142 10.8 9.9213 10.8123 9.84357C10.8801 9.41567 11.2157 9.08008 11.6436 9.01231C11.7213 9 11.8142 9 12 9C12.1858 9 12.2787 9 12.3564 9.01231C12.7843 9.08008 13.1199 9.41567 13.1877 9.84357C13.2 9.9213 13.2 10.0142 13.2 10.2V13.8ZM13.1998 7C13.1998 7.55228 12.7521 8 12.1998 8H11.7998C11.2475 8 10.7998 7.55228 10.7998 7C10.7998 6.44771 11.2475 6 11.7998 6H12.1998C12.7521 6 13.1998 6.44771 13.1998 7Z" fill="#999FA9"/>
</svg>
