<svg width="24" height="24" viewBox="0 0 24 24" fill="none" xmlns="http://www.w3.org/2000/svg">
<path d="M20.7967 8.54032C21.5628 8.54032 21.8406 8.62067 22.1207 8.77157C22.4008 8.92246 22.6206 9.14389 22.7704 9.42603C22.9036 9.67683 22.9814 9.92582 22.9971 10.5201L23 10.7598V16.0164C23 16.7881 22.9202 17.068 22.7704 17.3502C22.6206 17.6323 22.4008 17.8537 22.1207 18.0046C21.8718 18.1387 21.6246 18.2171 21.0346 18.2329L20.7967 18.2359C20.4947 18.2359 20.25 18.4806 20.25 18.7825V20.2105C20.25 20.4448 20.1467 20.667 19.968 20.817C19.6724 21.0651 19.2491 21.0569 18.964 20.8168L18.8642 20.7159L17.4124 18.961C17.1174 18.6045 16.97 18.4262 16.7677 18.331C16.5655 18.2359 16.3341 18.2359 15.8714 18.2359H12.8283C12.0622 18.2359 11.7844 18.1555 11.5043 18.0046C11.2242 17.8537 11.0044 17.6323 10.8546 17.3502C10.7214 17.0994 10.6436 16.8504 10.6279 16.2561L10.625 16.0164C10.627 15.7104 10.875 15.4638 11.1808 15.4528C12.5962 15.4018 13.2154 15.2004 13.8389 14.8645C14.5671 14.4721 15.1387 13.8964 15.5281 13.1628C15.8947 12.4724 16.1 11.7873 16.1229 10.0361L16.125 9.69504C16.125 9.55133 16.125 9.47948 16.1324 9.4191C16.1881 8.96289 16.5476 8.6034 17.0038 8.54769C17.0642 8.54032 17.136 8.54032 17.2797 8.54032H20.7967ZM11.1717 3C11.9378 3 12.2156 3.08036 12.4957 3.23125C12.7758 3.38214 12.9956 3.60357 13.1454 3.88572C13.2952 4.16786 13.375 4.44773 13.375 5.21949V10.4761C13.375 11.2478 13.2952 11.5277 13.1454 11.8098C12.9956 12.092 12.7758 12.3134 12.4957 12.4643C12.2156 12.6152 11.9378 12.6956 11.1717 12.6956H8.12863C7.6659 12.6956 7.43454 12.6956 7.23229 12.7907C7.03003 12.8859 6.88256 13.0642 6.5876 13.4207L5.13584 15.1756C4.85874 15.5106 4.36453 15.5558 4.03201 15.2767C3.85332 15.1267 3.75 14.9045 3.75 14.6702V13.2422C3.75 12.9403 3.50525 12.6956 3.20334 12.6956C2.43719 12.6956 2.15937 12.6152 1.87927 12.4643C1.59918 12.3134 1.37936 12.092 1.22957 11.8098C1.07977 11.5277 1 11.2478 1 10.4761V5.21949C1 4.44773 1.07977 4.16786 1.22957 3.88572C1.37936 3.60357 1.59918 3.38214 1.87927 3.23125C2.15937 3.08036 2.43719 3 3.20334 3H11.1717Z" fill="#999FA9"/>
</svg>
