<svg width="44" height="44" viewBox="0 0 44 44" fill="none" xmlns="http://www.w3.org/2000/svg">
<path fill-rule="evenodd" clip-rule="evenodd" d="M0.871948 4.36808C0 6.07937 0 8.31958 0 12.8V31.2C0 35.6804 0 37.9206 0.871948 39.6319C1.63893 41.1372 2.86278 42.3611 4.36808 43.1281C6.07937 44 8.31958 44 12.8 44H31.2C35.6804 44 37.9206 44 39.6319 43.1281C41.1372 42.3611 42.3611 41.1372 43.1281 39.6319C44 37.9206 44 35.6804 44 31.2V12.8C44 8.31958 44 6.07937 43.1281 4.36808C42.3611 2.86278 41.1372 1.63893 39.6319 0.871948C37.9206 0 35.6804 0 31.2 0H12.8C8.31958 0 6.07937 0 4.36808 0.871948C2.86278 1.63893 1.63893 2.86278 0.871948 4.36808ZM27.0472 20.9536L19.0015 28.9992L16.9098 26.9087C16.6687 26.6681 16.342 26.5329 16.0014 26.5329C15.6609 26.5329 15.3342 26.6681 15.0931 26.9087L10.0019 32.9999H34V26.6002L28.9075 20.9973C28.7904 20.8686 28.6485 20.765 28.4902 20.6928C28.3319 20.6205 28.1606 20.5812 27.9867 20.5771C27.8128 20.573 27.6398 20.6043 27.4783 20.669C27.3168 20.7337 27.1702 20.8305 27.0472 20.9536ZM11.1717 17.829C11.9219 18.5792 12.9394 19.0006 14.0003 19.0006C15.0613 19.0006 16.0788 18.5792 16.829 17.829C17.5792 17.0788 18.0006 16.0613 18.0006 15.0003C18.0006 13.9394 17.5792 12.9219 16.829 12.1717C16.0788 11.4215 15.0613 11 14.0003 11C12.9394 11 11.9219 11.4215 11.1717 12.1717C10.4215 12.9219 10 13.9394 10 15.0003C10 16.0613 10.4215 17.0788 11.1717 17.829Z" fill="#2D9CDB"/>
</svg>
